  -4.6447542e-01  -8.0889007e-01   3.6049887e-01   2.9377567e+01
  -8.7676974e-01   3.6272916e-01  -3.1575684e-01  -3.0590792e+01
   1.2464912e-01  -4.6273579e-01  -8.7768912e-01   4.5546243e+02
   0.0000000e+00   0.0000000e+00   0.0000000e+00   1.0000000e+00
