  -1.5542524e-01   8.9251019e-01   4.2340117e-01   1.9058615e+01
   8.9731785e-01   3.0679924e-01  -3.1732461e-01  -1.4473746e+01
  -4.1311460e-01   3.3060517e-01  -8.4854967e-01   4.4462117e+02
   0.0000000e+00   0.0000000e+00   0.0000000e+00   1.0000000e+00
