   4.5623141e-01  -8.1352993e-01   3.6058558e-01   3.7554835e+01
  -7.4216860e-01  -5.7143658e-01  -3.5020851e-01  -2.2234331e+01
   4.9095690e-01  -1.0783917e-01  -8.6448368e-01   4.5597915e+02
   0.0000000e+00   0.0000000e+00   0.0000000e+00   1.0000000e+00
