  -5.8837876e-01   6.9340720e-01   4.1592896e-01   1.6757436e+01
   6.2967103e-01   7.1562959e-01  -3.0230560e-01  -1.9976740e+01
  -5.0727195e-01   8.4028226e-02  -8.5767968e-01   4.4568010e+02
   0.0000000e+00   0.0000000e+00   0.0000000e+00   1.0000000e+00
