   5.8816020e-01  -7.2220197e-01   3.6399438e-01   3.8020863e+01
  -6.2948694e-01  -6.9137645e-01  -3.5460512e-01  -2.0317817e+01
   5.0775365e-01  -2.0565093e-02  -8.6125682e-01   4.5545818e+02
   0.0000000e+00   0.0000000e+00   0.0000000e+00   1.0000000e+00
