  -9.0763310e-01  -1.6959822e-01   3.8397733e-01   2.0554633e+01
  -2.9479065e-01   9.0874458e-01  -2.9543486e-01  -2.9633048e+01
  -2.9883209e-01  -3.8133939e-01  -8.7480264e-01   4.5109324e+02
   0.0000000e+00   0.0000000e+00   0.0000000e+00   1.0000000e+00
