  -3.1936363e-01  -8.7740281e-01   3.5801004e-01   3.1186346e+01
  -9.2436964e-01   2.0524156e-01  -3.2158462e-01  -2.9803587e+01
   2.0868071e-01  -4.3363604e-01  -8.7659121e-01   4.5598228e+02
   0.0000000e+00   0.0000000e+00   0.0000000e+00   1.0000000e+00
