   3.1914507e-01   8.4860804e-01   4.2191329e-01   2.3591953e+01
   9.2455373e-01  -1.8098842e-01  -3.3532609e-01  -1.0490971e+01
  -2.0819900e-01   4.9709918e-01  -8.4234529e-01   4.4515599e+02
   0.0000000e+00   0.0000000e+00   0.0000000e+00   1.0000000e+00
