  -7.9514804e-01   4.4966083e-01   4.0687190e-01   1.6798841e+01
   3.5092442e-01   8.8838776e-01  -2.9600548e-01  -2.3766923e+01
  -4.9456208e-01  -9.2586890e-02  -8.6419675e-01   4.4714734e+02
   0.0000000e+00   0.0000000e+00   0.0000000e+00   1.0000000e+00
