   5.9525913e-01   6.8744231e-01   4.1604043e-01   2.7269929e+01
   8.0271093e-01  -4.8531073e-01  -3.4659582e-01  -9.2338816e+00
  -3.6355745e-02   5.4027452e-01  -8.4070310e-01   4.4634437e+02
   0.0000000e+00   0.0000000e+00   0.0000000e+00   1.0000000e+00
