   7.0221471e-01  -6.0936772e-01   3.6819218e-01   3.8163853e+01
  -4.9767585e-01  -7.8994074e-01  -3.5820717e-01  -1.8396122e+01
   5.0912989e-01   6.8297991e-02  -8.5797561e-01   4.5478866e+02
   0.0000000e+00   0.0000000e+00   0.0000000e+00   1.0000000e+00
